{
  "users": [
    {
      "name": "Ramaya",
      "id": 1
    },
    {
      "id": 2,
      "name": "Rami"
    },
    {
      "id": 3,
      "name": "Bestie"
    }
  ],
  "products": [
    {
      "id": 0,
      "product_name": "Buku"
    }
  ]
}